<?xml version="1.0" encoding="utf-8"?>
<!-- Generator: Adobe Illustrator 19.0.0, SVG Export Plug-In . SVG Version: 6.00 Build 0)  -->
<svg version="1.1" id="Layer_1" xmlns="http://www.w3.org/2000/svg" xmlns:xlink="http://www.w3.org/1999/xlink" x="0px" y="0px"
	 viewBox="-34 36 30 30" style="enable-background:new -34 36 30 30;" xml:space="preserve">
<style type="text/css">
	.st0{fill:none;stroke:#9D489D;stroke-width:2;stroke-miterlimit:10;}
</style>
<circle class="st0" cx="-19" cy="51" r="12.4"/>
<polyline class="st0" points="-25.7,54.5 -18.6,47.4 -11.5,54.5 "/>
</svg>
